New_Approtch/DSO_Setup/Data/Data_06.11.2025/12.5gm.CSV

Sample Interval,CH1:0.0000000800000,,Second,Volt
Vertical Units,CH1:V,,-0.00081920001,-0.00400
Vertical Scale,CH1:0.05,,-0.00081911997,-0.00400
Vertical Offset,CH1:0.00,,-0.00081904000,-0.00400
Horizontal Units,s,,-0.00081896002,-0.00400
Horizontal Scale,0.0000500000,,-0.00081887998,-0.00400
Model Number,SDS1102CML+,,-0.00081880001,-0.00400
Serial Number,SDS1MKGX802779,,-0.00081871997,-0.00400
Software Version,6.01.01.25,,-0.00081863999,-0.00400
,,,-0.00081856002,-0.00400
,,,-0.00081847998,-0.00200
,,,-0.00081840000,-0.00400
,,,-0.00081831997,-0.00400
,,,-0.00081823999,-0.00200
,,,-0.00081816001,-0.00400
,,,-0.00081807998,-0.00200
,,,-0.00081800000,-0.00400
,,,-0.00081792002,-0.00400
,,,-0.00081783999,-0.00200
,,,-0.00081776001,-0.00200
,,,-0.00081767997,-0.00400
,,,-0.00081760000,-0.00400
,,,-0.00081752002,-0.00200
,,,-0.00081743998,-0.00400
,,,-0.00081736001,0.00
,,,-0.00081727997,-0.00200
,,,-0.00081719999,-0.00200
,,,-0.00081712002,-0.00200
,,,-0.00081703998,-0.00200
,,,-0.00081696000,-0.00200
,,,-0.00081687997,-0.00200
,,,-0.00081679999,-0.00200
,,,-0.00081672001,-0.00400
,,,-0.00081663998,-0.00200
,,,-0.00081656000,-0.00400
,,,-0.00081648002,-0.00400
,,,-0.00081639999,-0.00200
,,,-0.00081632001,-0.00400
,,,-0.00081623998,-0.00400
,,,-0.00081616000,-0.00400
,,,-0.00081608002,-0.00200
,,,-0.00081599999,-0.00200
,,,-0.00081592001,-0.00200
,,,-0.00081583997,-0.00200
,,,-0.00081576000,-0.00200
,,,-0.00081568002,-0.00200
,,,-0.00081559998,-0.00200
,,,-0.00081552000,-0.00200
,,,-0.00081543997,-0.00200
,,,-0.00081535999,-0.00200
,,,-0.00081528001,-0.00200
,,,-0.00081519998,-0.00200
,,,-0.00081512000,-0.00200
,,,-0.00081503997,-0.00200
,,,-0.00081495999,-0.00200
,,,-0.00081488001,-0.00200
,,,-0.00081479998,-0.00200
,,,-0.00081472000,-0.00200
,,,-0.00081464002,-0.00400
,,,-0.00081455999,-0.00200
,,,-0.00081448001,-0.00200
,,,-0.00081439997,-0.00200
,,,-0.00081432000,-0.00200
,,,-0.00081424002,-0.00200
,,,-0.00081415998,-0.00400
,,,-0.00081408001,-0.00200
,,,-0.00081399997,-0.00200
,,,-0.00081391999,-0.00200
,,,-0.00081384002,-0.00200
,,,-0.00081375998,-0.00200
,,,-0.00081368000,-0.00200
,,,-0.00081359997,-0.00200
,,,-0.00081351999,-0.00200
,,,-0.00081344001,-0.00200
,,,-0.00081335998,-0.00200
,,,-0.00081328000,-0.00200
,,,-0.00081320002,-0.00200
,,,-0.00081311999,-0.00200
,,,-0.00081304001,-0.00200
,,,-0.00081295997,-0.00200
,,,-0.00081288000,-0.00200
,,,-0.00081280002,0.00
,,,-0.00081271998,0.00
,,,-0.00081264001,-0.00200
,,,-0.00081255997,-0.00200
,,,-0.00081247999,-0.00200
,,,-0.00081240002,-0.00200
,,,-0.00081231998,-0.00200
,,,-0.00081224000,-0.00200
,,,-0.00081215997,-0.00200
,,,-0.00081207999,-0.00200
,,,-0.00081200001,-0.00200
,,,-0.00081191998,-0.00200
,,,-0.00081184000,-0.00200
,,,-0.00081176002,-0.00200
,,,-0.00081167999,-0.00200
,,,-0.00081160001,-0.00200
,,,-0.00081151997,-0.00200
,,,-0.00081144000,-0.00200
,,,-0.00081136002,-0.00200
,,,-0.00081127998,-0.00200
,,,-0.00081120001,-0.00200
,,,-0.00081111997,-0.00200
,,,-0.00081103999,-0.00200
,,,-0.00081096002,-0.00200
,,,-0.00081087998,0.00
,,,-0.00081080000,-0.00200
,,,-0.00081071997,-0.00200
,,,-0.00081063999,-0.00200
,,,-0.00081056001,-0.00200
,,,-0.00081047998,-0.00200
,,,-0.00081040000,-0.00200
,,,-0.00081032002,-0.00200
,,,-0.00081023999,-0.00200
,,,-0.00081016001,-0.00200
,,,-0.00081007998,-0.00200
,,,-0.00081000000,-0.00200
,,,-0.00080992002,-0.00200
,,,-0.00080983998,-0.00200
,,,-0.00080976001,-0.00200
,,,-0.00080967997,-0.00400
,,,-0.00080959999,-0.00200
,,,-0.00080952002,-0.00400
,,,-0.00080943998,-0.00400
,,,-0.00080936000,-0.00200
,,,-0.00080927997,-0.00200
,,,-0.00080919999,-0.00400
,,,-0.00080912001,-0.00400
,,,-0.00080903998,-0.00400
,,,-0.00080896000,-0.00200
,,,-0.00080888002,-0.00400
,,,-0.00080879999,-0.00400
,,,-0.00080872001,-0.00200
,,,-0.00080863998,-0.00200
,,,-0.00080856000,-0.00200
,,,-0.00080848002,-0.00400
,,,-0.00080839999,-0.00200
,,,-0.00080832001,-0.00200
,,,-0.00080823997,-0.00200
,,,-0.00080816000,-0.00200
,,,-0.00080808002,-0.00200
,,,-0.00080799998,-0.00200
,,,-0.00080792001,-0.00200
,,,-0.00080783997,-0.00200
,,,-0.00080775999,-0.00200
,,,-0.00080768001,-0.00200
,,,-0.00080759998,-0.00200
,,,-0.00080752000,-0.00200
,,,-0.00080743997,-0.00400
,,,-0.00080735999,-0.00200
,,,-0.00080728001,-0.00400
,,,-0.00080719998,-0.00400
,,,-0.00080712000,-0.00200
,,,-0.00080704002,-0.00400
,,,-0.00080695999,-0.00400
,,,-0.00080688001,-0.00400
,,,-0.00080679997,-0.00400
,,,-0.00080672000,-0.00400
,,,-0.00080664002,-0.00400
,,,-0.00080655998,-0.00400
,,,-0.00080648001,-0.00200
,,,-0.00080639997,-0.00200
,,,-0.00080631999,-0.00200
,,,-0.00080624002,-0.00200
,,,-0.00080615998,-0.00200
,,,-0.00080608000,-0.00200
,,,-0.00080599997,-0.00200
,,,-0.00080591999,-0.00200
,,,-0.00080584001,-0.00200
,,,-0.00080575998,-0.00200
,,,-0.00080568000,-0.00200
,,,-0.00080560002,-0.00200
,,,-0.00080551999,-0.00200
,,,-0.00080544001,-0.00200
,,,-0.00080535997,-0.00400
,,,-0.00080528000,-0.00200
,,,-0.00080520002,-0.00200
,,,-0.00080511998,-0.00400
,,,-0.00080504001,-0.00200
,,,-0.00080495997,-0.00400
,,,-0.00080487999,-0.00200
,,,-0.00080480002,-0.00200
,,,-0.00080471998,-0.00200
,,,-0.00080464000,-0.00400
,,,-0.00080455997,-0.00200
,,,-0.00080447999,-0.00200
,,,-0.00080440001,-0.00200
,,,-0.00080431998,-0.00200
,,,-0.00080424000,-0.00200
,,,-0.00080416002,-0.00200
,,,-0.00080407999,-0.00200
,,,-0.00080400001,-0.00200
,,,-0.00080391997,0.00
,,,-0.00080384000,0.00
,,,-0.00080376002,0.00
,,,-0.00080367998,0.00
,,,-0.00080360001,0.00
,,,-0.00080351997,0.00
,,,-0.00080343999,0.00
,,,-0.00080336002,0.00
,,,-0.00080327998,-0.00200
,,,-0.00080320000,-0.00200
,,,-0.00080311997,0.00
,,,-0.00080303999,-0.00200
,,,-0.00080296001,-0.00200
,,,-0.00080287998,-0.00200
,,,-0.00080280000,-0.00200
,,,-0.00080272002,-0.00200
,,,-0.00080263999,-0.00200
,,,-0.00080256001,-0.00200
,,,-0.00080247998,-0.00200
,,,-0.00080240000,-0.00200
,,,-0.00080232002,-0.00200
,,,-0.00080223999,-0.00200
,,,-0.00080216001,-0.00200
,,,-0.00080207997,-0.00200
,,,-0.00080200000,-0.00200
,,,-0.00080192002,-0.00200
,,,-0.00080183998,-0.00200
,,,-0.00080176000,-0.00200
,,,-0.00080167997,-0.00200
,,,-0.00080159999,-0.00200
,,,-0.00080152001,-0.00200
,,,-0.00080143998,-0.00200
,,,-0.00080136000,-0.00200
,,,-0.00080127997,0.00
,,,-0.00080119999,0.00
,,,-0.00080112001,0.00
,,,-0.00080103998,-0.00200
,,,-0.00080096000,-0.00200
,,,-0.00080088002,0.00
,,,-0.00080079999,-0.00200
,,,-0.00080072001,0.00
,,,-0.00080063997,-0.00200
,,,-0.00080056000,0.00
,,,-0.00080048002,-0.00200
,,,-0.00080039998,-0.00200
,,,-0.00080032001,-0.00200
,,,-0.00080023997,-0.00200
,,,-0.00080015999,-0.00200
,,,-0.00080008002,-0.00200
,,,-0.00079999998,-0.00200
,,,-0.00079992000,-0.00200
,,,-0.00079983997,-0.00200
,,,-0.00079975999,-0.00200
,,,-0.00079968001,-0.00200
,,,-0.00079959998,-0.00200
,,,-0.00079952000,-0.00200
,,,-0.00079944002,0.00
,,,-0.00079935999,0.00
,,,-0.00079928001,0.00200
,,,-0.00079919997,-0.00200
,,,-0.00079912000,-0.00200
,,,-0.00079904002,0.00
,,,-0.00079895998,0.00200
,,,-0.00079888001,0.00
,,,-0.00079879997,0.00200
,,,-0.00079871999,0.00200
,,,-0.00079864002,0.00
,,,-0.00079855998,0.00
,,,-0.00079848000,0.00
,,,-0.00079839997,0.00
,,,-0.00079831999,0.00
,,,-0.00079824001,0.00
,,,-0.00079815998,0.00
,,,-0.00079808000,-0.00200
,,,-0.00079800002,0.00
,,,-0.00079791999,0.00
,,,-0.00079784001,0.00
,,,-0.00079775997,0.00
,,,-0.00079768000,0.00
,,,-0.00079760002,0.00
,,,-0.00079751998,-0.00200
,,,-0.00079744001,-0.00200
,,,-0.00079735997,0.00
,,,-0.00079727999,0.00
,,,-0.00079720002,0.00
,,,-0.00079711998,0.00
,,,-0.00079704000,0.00
,,,-0.00079695997,-0.00200
,,,-0.00079687999,0.00
,,,-0.00079680001,0.00200
,,,-0.00079671998,0.00
,,,-0.00079664000,0.00
,,,-0.00079656002,0.00
,,,-0.00079647999,-0.00200
,,,-0.00079640001,0.00
,,,-0.00079631998,0.00
,,,-0.00079624000,0.00
,,,-0.00079616002,-0.00200
,,,-0.00079607998,-0.00200
,,,-0.00079600001,-0.00200
,,,-0.00079591997,0.00
,,,-0.00079583999,0.00
,,,-0.00079576002,-0.00200
,,,-0.00079567998,-0.00200
,,,-0.00079560000,-0.00200
,,,-0.00079551997,-0.00200
,,,-0.00079543999,-0.00200
,,,-0.00079536001,-0.00200
,,,-0.00079527998,-0.00200
,,,-0.00079520000,-0.00200
,,,-0.00079512002,-0.00200
,,,-0.00079503999,-0.00200
,,,-0.00079496001,-0.00200
,,,-0.00079487998,0.00
,,,-0.00079480000,0.00
,,,-0.00079472002,0.00
,,,-0.00079463999,0.00
,,,-0.00079456001,0.00
,,,-0.00079447997,0.00200
,,,-0.00079440000,0.00
,,,-0.00079432002,0.00
,,,-0.00079423998,0.00200
,,,-0.00079416001,0.00
,,,-0.00079407997,-0.00200
,,,-0.00079399999,0.00
,,,-0.00079392001,0.00
,,,-0.00079383998,0.00
,,,-0.00079376000,-0.00200
,,,-0.00079367997,0.00
,,,-0.00079359999,0.00
,,,-0.00079352001,0.00
,,,-0.00079343998,-0.00200
,,,-0.00079336000,-0.00200
,,,-0.00079328002,0.00
,,,-0.00079319999,-0.00200
,,,-0.00079312001,0.00
,,,-0.00079303997,-0.00200
,,,-0.00079296000,-0.00200
,,,-0.00079288002,0.00
,,,-0.00079279998,0.00
,,,-0.00079272001,0.00
,,,-0.00079263997,0.00
,,,-0.00079255999,0.00
,,,-0.00079248002,0.00
,,,-0.00079239998,0.00
,,,-0.00079232000,0.00
,,,-0.00079223997,0.00
,,,-0.00079215999,0.00
,,,-0.00079208001,0.00
,,,-0.00079199998,0.00
,,,-0.00079192000,0.00
,,,-0.00079184002,0.00
,,,-0.00079175999,0.00
,,,-0.00079168001,-0.00200
,,,-0.00079159997,0.00
,,,-0.00079152000,-0.00200
,,,-0.00079144002,-0.00200
,,,-0.00079135998,-0.00200
,,,-0.00079128001,0.00
,,,-0.00079119997,-0.00200
,,,-0.00079111999,-0.00200
,,,-0.00079104002,-0.00200
,,,-0.00079095998,-0.00200
,,,-0.00079088000,-0.00200
,,,-0.00079079997,-0.00200
,,,-0.00079071999,-0.00200
,,,-0.00079064001,-0.00200
,,,-0.00079055998,-0.00200
,,,-0.00079048000,-0.00200
,,,-0.00079040002,-0.00200
,,,-0.00079031999,-0.00200
,,,-0.00079024001,-0.00200
,,,-0.00079015997,-0.00200
,,,-0.00079008000,-0.00200
,,,-0.00079000002,-0.00200
,,,-0.00078991998,0.00
,,,-0.00078984001,0.00
,,,-0.00078975997,-0.00200
,,,-0.00078967999,-0.00200
,,,-0.00078960002,-0.00200
,,,-0.00078951998,-0.00200
,,,-0.00078944000,-0.00200
,,,-0.00078935997,-0.00200
,,,-0.00078927999,-0.00200
,,,-0.00078920001,-0.00200
,,,-0.00078911998,-0.00200
,,,-0.00078904000,-0.00200
,,,-0.00078896002,-0.00200
,,,-0.00078887999,-0.00200
,,,-0.00078880001,-0.00200
,,,-0.00078871998,-0.00200
,,,-0.00078864000,-0.00200
,,,-0.00078856002,-0.00200
,,,-0.00078847999,-0.00200
,,,-0.00078840001,-0.00200
,,,-0.00078831997,-0.00200
,,,-0.00078824000,-0.00200
,,,-0.00078816002,-0.00200
,,,-0.00078807998,-0.00200
,,,-0.00078800000,-0.00200
,,,-0.00078791997,0.00
,,,-0.00078783999,0.00
,,,-0.00078776001,0.00
,,,-0.00078767998,0.00
,,,-0.00078760000,0.00
,,,-0.00078751997,0.00400
,,,-0.00078743999,0.00
,,,-0.00078736001,0.00
,,,-0.00078727998,0.00
,,,-0.00078720000,0.00200
,,,-0.00078712002,0.00200
,,,-0.00078703999,0.00200
,,,-0.00078696001,0.00200
,,,-0.00078687997,0.00
,,,-0.00078680000,0.00
,,,-0.00078672002,0.00200
,,,-0.00078663998,0.00
,,,-0.00078656001,0.00
,,,-0.00078647997,-0.00200
,,,-0.00078639999,0.00
,,,-0.00078632002,-0.00200
,,,-0.00078623998,-0.00200
,,,-0.00078616000,0.00
,,,-0.00078607997,0.00
,,,-0.00078599999,0.00
,,,-0.00078592001,0.00
,,,-0.00078583998,-0.00200
,,,-0.00078576000,0.00
,,,-0.00078568002,0.00
,,,-0.00078559999,-0.00200
,,,-0.00078552001,-0.00200
,,,-0.00078543997,0.00
,,,-0.00078536000,0.00
,,,-0.00078528002,-0.00200
,,,-0.00078519998,0.00
,,,-0.00078512001,-0.00200
,,,-0.00078503997,-0.00200
,,,-0.00078495999,-0.00200
,,,-0.00078488002,-0.00200
,,,-0.00078479998,-0.00200
,,,-0.00078472000,-0.00200
,,,-0.00078463997,-0.00200
,,,-0.00078455999,-0.00200
,,,-0.00078448001,-0.00200
,,,-0.00078439998,-0.00200
,,,-0.00078432000,-0.00200
,,,-0.00078424002,-0.00200
,,,-0.00078415999,-0.00200
,,,-0.00078408001,0.12600
,,,-0.00078399997,0.19000
,,,-0.00078392000,0.19400
,,,-0.00078384002,0.18600
,,,-0.00078375998,0.17600
,,,-0.00078368001,0.15600
,,,-0.00078359997,0.11000
,,,-0.00078351999,0.10400
,,,-0.00078344002,0.11000
,,,-0.00078335998,0.11200
,,,-0.00078328000,0.11000
,,,-0.00078319997,0.10800
,,,-0.00078311999,0.10200
,,,-0.00078304001,0.09600
,,,-0.00078295998,0.09200
,,,-0.00078288000,0.08400
,,,-0.00078280002,0.08000
,,,-0.00078271999,0.07600
,,,-0.00078264001,0.07400
,,,-0.00078255998,0.07000
,,,-0.00078248000,0.06600
,,,-0.00078240002,0.06200
,,,-0.00078231998,0.05800
,,,-0.00078224001,0.05400
,,,-0.00078215997,0.05200
,,,-0.00078207999,0.05000
,,,-0.00078200002,0.04600
,,,-0.00078191998,0.04400
,,,-0.00078184000,0.04400
,,,-0.00078175997,0.04200
,,,-0.00078167999,0.03800
,,,-0.00078160001,0.03600
,,,-0.00078151998,0.03600
,,,-0.00078144000,0.03400
,,,-0.00078136002,0.03000
,,,-0.00078127999,0.03000
,,,-0.00078120001,0.03000
,,,-0.00078111998,0.02800
,,,-0.00078104000,0.02800
,,,-0.00078096002,0.02600
,,,-0.00078087999,0.02600
,,,-0.00078080001,0.02400
,,,-0.00078071997,0.02400
,,,-0.00078064000,0.02200
,,,-0.00078056002,0.02200
,,,-0.00078047998,0.02200
,,,-0.00078040001,0.02200
,,,-0.00078031997,0.02000
,,,-0.00078023999,0.02000
,,,-0.00078016001,0.02000
,,,-0.00078007998,0.01800
,,,-0.00078000000,0.01800
,,,-0.00077991997,0.01600
,,,-0.00077983999,0.01600
,,,-0.00077976001,0.01600
,,,-0.00077967998,0.01400
,,,-0.00077960000,0.01200
,,,-0.00077952002,0.01400
,,,-0.00077943999,0.01200
,,,-0.00077936001,0.01200
,,,-0.00077927997,0.01200
,,,-0.00077920000,0.01200
,,,-0.00077912002,0.01200
,,,-0.00077903998,0.01200
,,,-0.00077896001,0.01200
,,,-0.00077887997,0.01200
,,,-0.00077879999,0.01200
,,,-0.00077872002,0.01000
,,,-0.00077863998,0.01000
,,,-0.00077856000,0.01200
,,,-0.00077847997,0.01000
,,,-0.00077839999,0.01000
,,,-0.00077832001,0.01000
,,,-0.00077823998,0.01000
,,,-0.00077816000,0.01000
,,,-0.00077808002,0.01000
,,,-0.00077799999,0.01000
,,,-0.00077792001,0.01000
,,,-0.00077783997,0.01000
,,,-0.00077776000,0.01000
,,,-0.00077768002,0.01000
,,,-0.00077759998,0.00800
,,,-0.00077752001,0.00800
,,,-0.00077743997,0.01000
,,,-0.00077735999,0.01000
,,,-0.00077728002,0.00800
,,,-0.00077719998,0.00800
,,,-0.00077712000,0.00800
,,,-0.00077703997,0.00600
,,,-0.00077695999,0.00800
,,,-0.00077688001,0.00800
,,,-0.00077679998,0.00600
,,,-0.00077672000,0.00600
,,,-0.00077664002,0.00600
,,,-0.00077655999,0.00800
,,,-0.00077648001,0.00800
,,,-0.00077639997,0.00800
,,,-0.00077632000,0.00800
,,,-0.00077624002,0.00600
,,,-0.00077615998,0.00800
,,,-0.00077608001,0.00600
,,,-0.00077599997,0.00600
,,,-0.00077591999,0.00800
,,,-0.00077584002,0.00800
,,,-0.00077575998,0.00800
,,,-0.00077568000,0.00800
,,,-0.00077559997,0.00800
,,,-0.00077551999,0.00800
,,,-0.00077544001,0.00600
,,,-0.00077535998,0.00800
,,,-0.00077528000,0.00600
,,,-0.00077520002,0.00600
,,,-0.00077511999,0.00600
,,,-0.00077504001,0.00600
,,,-0.00077495998,0.00600
,,,-0.00077488000,0.00600
,,,-0.00077480002,0.00600
,,,-0.00077471999,0.00600
,,,-0.00077464001,0.00600
,,,-0.00077455997,0.00600
,,,-0.00077448000,0.00400
,,,-0.00077440002,0.00600
,,,-0.00077431998,0.00400
,,,-0.00077424000,0.00400
,,,-0.00077415997,0.00400
,,,-0.00077407999,0.00400
,,,-0.00077400001,0.00600
,,,-0.00077391998,0.00400
,,,-0.00077384000,0.00600
,,,-0.00077375997,0.00600
,,,-0.00077367999,0.00600
,,,-0.00077360001,0.00600
,,,-0.00077351998,0.00400
,,,-0.00077344000,0.00600
,,,-0.00077336002,0.00400
,,,-0.00077327999,0.00600
,,,-0.00077320001,0.00600
,,,-0.00077311997,0.00600
,,,-0.00077304000,0.00600
,,,-0.00077296002,0.00400
,,,-0.00077287998,0.00600
,,,-0.00077280001,0.00400
,,,-0.00077271997,0.00400
,,,-0.00077263999,0.00400
,,,-0.00077256002,0.00400
,,,-0.00077247998,0.00600
,,,-0.00077240000,0.00400
,,,-0.00077231997,0.00400
,,,-0.00077223999,0.00400
,,,-0.00077216001,0.00400
,,,-0.00077207998,0.00400
,,,-0.00077200000,0.00400
,,,-0.00077192002,0.00400
,,,-0.00077183999,0.00400
,,,-0.00077176001,0.00400
,,,-0.00077167997,0.00400
,,,-0.00077160000,0.00600
,,,-0.00077152002,0.00600
,,,-0.00077143998,0.00600
,,,-0.00077136001,0.00600
,,,-0.00077127997,0.00600
,,,-0.00077119999,0.00400
,,,-0.00077112002,0.00400
,,,-0.00077103998,0.00400
,,,-0.00077096000,0.00400
,,,-0.00077087997,0.00400
,,,-0.00077079999,0.00400
,,,-0.00077072001,0.00400
,,,-0.00077063998,0.00600
,,,-0.00077056000,0.00400
,,,-0.00077048002,0.00400
,,,-0.00077039999,0.00400
,,,-0.00077032001,0.00400
,,,-0.00077023997,0.00400
,,,-0.00077016000,0.00400
,,,-0.00077008002,0.00400
,,,-0.00076999998,0.00400
,,,-0.00076992001,0.00400
,,,-0.00076983997,0.00400
,,,-0.00076975999,0.00400
,,,-0.00076968002,0.00400
,,,-0.00076959998,0.00400
,,,-0.00076952000,0.00400
,,,-0.00076943997,0.00400
,,,-0.00076935999,0.00400
,,,-0.00076928001,0.00400
,,,-0.00076919998,0.00400
,,,-0.00076912000,0.00400
,,,-0.00076904002,0.00400
,,,-0.00076895999,0.00400
,,,-0.00076888001,0.00400
,,,-0.00076879998,0.00400
,,,-0.00076872000,0.00400
,,,-0.00076864002,0.00400
,,,-0.00076855998,0.00400
,,,-0.00076848001,0.00600
,,,-0.00076839997,0.00400
,,,-0.00076831999,0.00400
,,,-0.00076824002,0.00400
,,,-0.00076815998,0.00400
,,,-0.00076808000,0.00600
,,,-0.00076799997,0.00400
,,,-0.00076791999,0.00400
,,,-0.00076784001,0.00400
,,,-0.00076775998,0.00400
,,,-0.00076768000,0.00400
,,,-0.00076760002,0.00400
,,,-0.00076751999,0.00400
,,,-0.00076744001,0.00400
,,,-0.00076735998,0.00400
,,,-0.00076728000,0.00400
,,,-0.00076720002,0.00400
,,,-0.00076711999,0.00400
,,,-0.00076704001,0.00400
,,,-0.00076695997,0.00400
,,,-0.00076688000,0.00400
,,,-0.00076680002,0.00400
,,,-0.00076671998,0.00600
,,,-0.00076664001,0.00600
,,,-0.00076655997,0.00600
,,,-0.00076647999,0.00600
,,,-0.00076640001,0.00600
,,,-0.00076631998,0.00400
,,,-0.00076624000,0.00600
,,,-0.00076615997,0.00400
,,,-0.00076607999,0.00600
,,,-0.00076600001,0.00400
,,,-0.00076591998,0.00400
,,,-0.00076584000,0.00400
,,,-0.00076576002,0.00400
,,,-0.00076567999,0.00400
,,,-0.00076560001,0.00400
,,,-0.00076551997,0.00400
,,,-0.00076544000,0.00400
,,,-0.00076536002,0.00400
,,,-0.00076527998,0.00600
,,,-0.00076520001,0.00400
,,,-0.00076511997,0.00400
,,,-0.00076503999,0.00400
,,,-0.00076496002,0.00400
,,,-0.00076487998,0.00400
,,,-0.00076480000,0.00400
,,,-0.00076471997,0.00400
,,,-0.00076463999,0.00400
,,,-0.00076456001,0.00400
,,,-0.00076447998,0.00400
,,,-0.00076440000,0.00600
,,,-0.00076432002,0.00600
,,,-0.00076423999,0.00400
,,,-0.00076416001,0.00400
,,,-0.00076407997,0.00400
,,,-0.00076400000,0.00400
,,,-0.00076392002,0.00400
,,,-0.00076383998,0.00400
,,,-0.00076376001,0.00400
,,,-0.00076367997,0.00400
,,,-0.00076359999,0.00200
,,,-0.00076352002,0.00200
,,,-0.00076343998,0.00200
,,,-0.00076336000,0.00200
,,,-0.00076327997,0.00400
,,,-0.00076319999,0.00400
,,,-0.00076312001,0.00400
,,,-0.00076303998,0.00400
,,,-0.00076296000,0.00400
,,,-0.00076288002,0.00200
,,,-0.00076279999,0.00400
,,,-0.00076272001,0.00400
,,,-0.00076263997,0.00400
,,,-0.00076256000,0.00400
,,,-0.00076248002,0.00400
,,,-0.00076239998,0.00400
,,,-0.00076232001,0.00400
,,,-0.00076223997,0.00400
,,,-0.00076215999,0.00400
,,,-0.00076208002,0.00400
,,,-0.00076199998,0.00400
,,,-0.00076192000,0.00600
,,,-0.00076183997,0.00400
,,,-0.00076175999,0.00400
,,,-0.00076168001,0.00400
,,,-0.00076159998,0.00600
,,,-0.00076152000,0.00400
,,,-0.00076144002,0.00200
,,,-0.00076135999,0.00400
,,,-0.00076128001,0.00400
,,,-0.00076119998,0.00200
,,,-0.00076112000,0.00400
,,,-0.00076104002,0.00400
,,,-0.00076095999,0.00400
,,,-0.00076088001,0.00400
,,,-0.00076079997,0.00200
,,,-0.00076072000,0.00400
,,,-0.00076064002,0.00200
,,,-0.00076055998,0.00400
,,,-0.00076048000,0.00200
,,,-0.00076039997,0.00400
,,,-0.00076031999,0.00200
,,,-0.00076024001,0.00400
,,,-0.00076015998,0.00400
,,,-0.00076008000,0.00200
,,,-0.00076000002,0.00400
,,,-0.00075991999,0.00400
,,,-0.00075984001,0.00400
,,,-0.00075975998,0.00400
,,,-0.00075968000,0.00200
,,,-0.00075960002,0.00400
,,,-0.00075951999,0.00200
,,,-0.00075944001,0.00400
,,,-0.00075935997,0.00200
,,,-0.00075928000,0.00400
,,,-0.00075920002,0.00200
,,,-0.00075911998,0.00400
,,,-0.00075904001,0.00200
,,,-0.00075895997,0.00200
,,,-0.00075887999,0.00200
,,,-0.00075880002,0.00200
,,,-0.00075871998,0.00200
,,,-0.00075864000,0.00200
,,,-0.00075855997,0.00400
,,,-0.00075847999,0.00200
